…
# for now, load an internal ontology
cropOntology <- system.file("extdata", "crops.rds", package = "ontologics")
```

## Build an ontology by adding incoming concepts

When an ontology exists already, it can be used either by looking up
which concepts exist in it, which relations the concepts have among each
other or by adding and linking new concepts to the already existing
concepts.

``` r
# already existing ontology for some project about crops
(crops <- load_ontology(ontoDir = cropOntology))
#> # A tibble: 73 × 6
#>    code  broader label_en              class source     external
#>    <chr> <chr>   <chr>                 <chr> <chr>      <chr>   
#>  1 _01   <NA>    BIOENERGY CROPS       group harmonised <NA>    
#>  2 _0101 _01     Bioenergy herbaceous  class harmonised <NA>    
#>  3 _0102 _01     Bioenergy woody       class harmonised <NA>    
#>  4 _0103 _01     Other bioenergy crops class harmonised <NA>    
#>  5 _02   <NA>    CEREALS               group harmonised <NA>    
#>  6 _0201 _02     Barley                class harmonised <NA>    
#>  7 _0202 _02     Maize                 class harmonised <NA>    
#>  8 _0203 _02     Millets               class harmonised <NA>    
#>  9 _0204 _02     Oats                  class harmonised <NA>    
#> 10 _0205 _02     Other cereals         class harmonised <NA>    
#> # … with 63 more rows
…
We can, moreover check whether the external concepts are properly
defined

``` r
crops_updated <- read_rds(file = cropOntology)
crops_updated$attributes %>% 
  arrange(source)
#> # A tibble: 78 × 4
#>    code                  source           label_en              class
#>    <chr>                 <chr>            <chr>                 <chr>
#>  1 external_dataset_B3_3 external_dataset Avocado               <NA> 
#>  2 external_dataset_C3_1 external_dataset Wheat                 <NA> 
#>  3 external_dataset_C3_2 external_dataset NUTS                  <NA> 
#>  4 _01                   harmonised       BIOENERGY CROPS       group
#>  5 _0101                 harmonised       Bioenergy herbaceous  class
#>  6 _0102                 harmonised       Bioenergy woody       class
#>  7 _0103                 harmonised       Other bioenergy crops class
#>  8 _02                   harmonised       CEREALS               group
#>  9 _0201                 harmonised       Barley                class
#> 10 _0202                 harmonised       Maize                 class
#> # … with 68 more rows
```
